Homework2
…
nrow(data)

[1] 1200

nrow(individual)

[1] 1200

In the case of missing values, impute data using the average within the variables “male” and “hispanic.”

#checking the missing condition for the data
miss_var_summary(data)

# A tibble: 49 × 3
   variable      n_miss pct_miss
   <chr>          <int>    <num>
 1 pm2_5_fr         300    25   
 2 hayfever         118     9.83
 3 father_asthma    106     8.83
 4 mmef             106     8.83
 5 no_24hr          100     8.33
 6 fvc               97     8.08
 7 fev               95     7.92
 8 agepft            89     7.42
 9 height            89     7.42
10 weight            89     7.42
# ℹ 39 more rows
…
    } else if (is.double(data[[col]])) {
      # Numeric (double): Use mean to impute, keep it numeric
      data[, (col) := ifelse(is.na(get(col)), mean(get(col), na.rm = TRUE), get(col)), by = .(male, hispanic)]
    }
  
  } else if (is.character(data[[col]])) {
    # Character: Use mode to impute
    data[, (col) := ifelse(is.na(get(col)), mode_func(get(col)), get(col)), by = .(male, hispanic)]
  }
}

#test for missing again
miss_var_summary(data)

# A tibble: 49 × 3
   variable n_miss pct_miss
   <chr>     <int>    <num>
 1 townname      0        0
 2 sid           0        0
 3 male          0        0
 4 race          0        0
 5 hispanic      0        0
 6 agepft        0        0
 7 height        0        0
 8 weight        0        0
 9 bmi           0        0
10 asthma        0        0
# ℹ 39 more rows
…
